{
  "person": [
    {
      "id": 1,
      "name": "Le Guin",
      "firstname": "Ursula K.",
      "age": -1
    },
    {
      "id": 2,
      "name": "Friot",
      "firstname": "Bernard",
      "age": 73
    },
    {
      "id": 3,
      "name": "Malatesta",
      "firstname": "Errico",
      "age": -1
    },
    {
      "id": 4,
      "name": "Gay",
      "firstname": "Amandine",
      "age": 35
    }
  ]
}